t1,t2,t3,x,y,d
1540496588439696,1540496588447399,1540496588439009,-26.8133,129.172,131.926
1540496593454099,1540496593478128,1540496593463219,780.899,-nan,352.289
1540496598465850,1540496598487371,1540496598453348,-1526.16,-nan,502.789
1540496603465022,1540496603487485,1540496603463983,-110.71,379.474,395.294
1540496608496660,1540496608497890,1540496608481798,-184.39,173.503,253.186
1540496613494229,1540496613493531,1540496613506962,-107.15,183.992,212.918
1540496618490611,1540496618503842,1540496618490249,-22.8067,226.461,227.607
1540496623501203,1540496623500941,1540496623500465,-108.116,535.717,546.517
1540496628510114,1540496628511433,1540496628510955,17.9294,45.5706,48.9708
1540496633513960,1540496633513707,1540496633513219,-98.8909,487.235,497.169
1540496638520196,1540496638534362,1540496638518898,-89.8634,236.255,252.768
1540496643503544,1540496643551855,1540496643502647,-201.82,818.151,842.676
1540496648513701,1540496648553782,1540496648535378,2531.7,-nan,573.522
1540496653546352,1540496653546903,1540496653538059,-68.3294,112.528,131.649
1540496658553339,1540496658552167,1540496658537796,144.515,220.155,263.349
1540496663540599,1540496663557032,1540496663555975,169.3,199.084,261.337
1540496668581621,1540496668581193,1540496668580761,-6621.15,28147.7,28916
1540496673577224,1540496673590369,1540496673576510,-45.2506,224.807,229.316
1540496678577305,1540496678586781,1540496678577664,16.0005,153.553,154.385
1540496683588322,1540496683590257,1540496683589327,17.2181,-nan,14.7631
1540496688598850,1540496688600431,1540496688599733,16.5325,26.0806,30.8791
1540496693605931,1540496693624094,1540496693604303,-143.492,292.514,325.814
1540496698612677,1540496698597069,1540496698612181,35.6213,259.49,261.924
1540496703626330,1540496703613646,1540496703614248,93.5478,177.739,200.854
1540496708609097,1540496708626514,1540496708625540,168.837,223.018,279.719
1540496713630719,1540496713629945,1540496713645038,-126.485,205.64,241.426
1540496718634958,1540496718636044,1540496718635567,14.5233,60.8073,62.5176
1540496723639345,1540496723639933,1540496723638373,-18.532,29.0212,34.4335
1540496728646764,1540496728677214,1540496728667641,1418.25,-nan,437.513
1540496733656775,1540496733657447,1540496733655734,-18.816,18.8163,26.61
1540496738663703,1540496738662807,1540496738649228,90.8778,225.451,243.078
1540496743661597,1540496743672379,1540496743660950,-34.0277,183.74,186.865
1540496748670069,1540496748686504,1540496748656611,-1324.7,-nan,432.083
1540496753666768,1540496753687143,1540496753692883,-1865.28,-nan,521.543
1540496758682804,1540496758682510,1540496758682052,-143.334,698.48,713.035
1540496763699529,1540496763674999,1540496763689045,871.802,-nan,355.299
1540496768692440,1540496768692077,1540496768682928,-2.04983,151.232,151.246
1540496773722390,1540496773721823,1540496773687541,151.569,580.358,599.824
1540496778704382,1540496778713375,1540496778713922,-14.4967,151.184,151.878
1540496783721394,1540496783720104,1540496783693728,309.976,361.54,476.232
1540496788721032,1540496788716638,1540496788710487,1299.86,-nan,493.378
1540496793723667,1540496793743964,1540496793724057,36.437,342.962,344.892
1540496798718081,1540496798735005,1540496798741474,-2184.83,-nan,531.72
1540496803733638,1540496803734368,1540496803719259,-121.781,209.482,242.308
1540496808724854,1540496808733385,1540496808733060,53.7908,116.861,128.647
1540496813739388,1540496813740129,1540496813740436,73.4168,244.829,255.599
1540496818757728,1540496818756015,1540496818742361,235.572,119.686,264.232
1540496823748931,1540496823780275,1540496823767623,1566.52,-nan,446.653
1540496828777056,1540496828776509,1540496828764539,30.508,204.584,206.846
1540496833774198,1540496833773875,1540496833774417,-8.6368,132.869,133.15
1540496838768947,1540496838783508,1540496838798405,172413,-nan,21988
1540496843800685,1540496843764359,1540496843764741,157.046,598.62,618.877
1540496848806810,1540496848792749,1540496848793621,128.505,180.835,221.844
1540496853788501,1540496853789712,1540496853789477,23.7066,61.8117,66.2018
1540496858780205,1540496858801264,1540496858788554,617.902,-nan,306.459
1540496863809335,1540496863810069,1540496863808251,-19.0285,10.562,21.7633
1540496868825882,1540496868800085,1540496868798758,-313.675,345.87,466.924
1540496873796445,1540496873797855,1540496873824856,353.442,338.823,489.614
1540496878834088,1540496878833611,1540496878834639,-13.5532,64.9376,66.3369
1540496883862005,1540496883836549,1540496883832238,-1377.99,-nan,539.812
1540496888826944,1540496888811583,1540496888827986,-77.2408,260.088,271.315
1540496893840676,1540496893826952,1540496893840050,39.4223,224.234,227.673
1540496898871922,1540496898846672,1540496898840705,-2195.25,-nan,597.838
1540496903859602,1540496903849740,1540496903858803,36.1484,153.403,157.605
1540496908871556,1540496908870716,1540496908872794,-20.6134,-nan,12.0362
1540496913856538,1540496913897772,1540496913879040,2683.3,-nan,589.931
1540496918871817,1540496918854180,1540496918873111,-110.035,293.545,313.49
1540496923873193,1540496923873791,1540496923884411,29.1337,180.868,183.2
1540496928891956,1540496928880601,1540496928891362,31.118,183.372,185.994
1540496933904813,1540496933896671,1540496933897034,54.6385,107.75,120.812
1540496938887225,1540496938886086,1540496938908245,-239.179,269.69,360.471
1540496943904851,1540496943918953,1540496943918557,79.378,214.971,229.158
1540496948910659,1540496948909719,1540496948918386,-86.5286,89.105,124.205
1540496953918836,1540496953935108,1540496953925385,375.522,-nan,234.523
1540496958927338,1540496958926419,1540496958929066,-26.6122,-nan,3.87333
1540496963953590,1540496963931800,1540496963933324,294.28,187.517,348.946
1540496968926831,1540496968940787,1540496968940137,105.767,196.236,222.924
1540496973961653,1540496973945181,1540496973959815,133.184,230.468,266.184
1540496978937441,1540496978965522,1540496978951884,1233.11,-nan,401.346
1540496983990529,1540496983946602,1540496983976159,2346.22,-nan,658.531
1540496988990195,1540496988978756,1540496988978385,-7.05403,193.663,193.792
1540496993982583,1540496993980391,1540496993981441,18.9199,-nan,6.11603
1540496999005201,1540496998977175,1540496998977486,110.35,462.477,475.46
1540497003997814,1540497004003971,1540497003983526,-640.543,-nan,292.011
1540497009005384,1540497008992093,1540497008970382,10919.8,-nan,1317.44
1540497014017604,1540497014016974,1540497014006010,34.9557,186.929,190.169
1540497019002916,1540497019002598,1540497019002153,-187.421,901.083,920.368
1540497024002140,1540497023988881,1540497024023491,-1900.8,-nan,494.079
1540497029021933,1540497029023765,1540497029022640,12.3119,7.13374,14.2293
1540497034030056,1540497034029462,1540497034030402,-8.49116,65.0713,65.6229
1540497039026529,1540497039053007,1540497039036506,942.249,-nan,389.109
1540497044033719,1540497044033193,1540497044034219,-12.0727,62.6736,63.8257
1540497049091745,1540497049041493,1540497049057341,3836.98,-nan,725.085
1540497054071494,1540497054072601,1540497054057790,-158.064,170.047,232.165
1540497059084430,1540497059071108,1540497059070611,-30.7287,228.248,230.308
1540497064077510,1540497064061898,1540497064098755,-2160.34,-nan,526.138
1540497069068762,1540497069069795,1540497069091535,191.871,339.549,390.01
1540497074099402,1540497074100496,1540497074101333,180.787,296.401,347.185
1540497079101234,1540497079100290,1540497079087529,91.0623,210.624,229.466
1540497084091491,1540497084121388,1540497084106168,1374.76,-nan,429.019
1540497089105437,1540497089127167,1540497089103920,-158.117,353.144,386.926
1540497094137136,1540497094108608,1540497094135913,157.96,454.517,481.182
1540497099118172,1540497099106551,1540497099117180,52.2009,180.016,187.432
1540497104125689,1540497104126061,1540497104144423,31.7096,316.115,317.701
1540497109128496,1540497109143757,1540497109130539,135.692,202.089,243.418
1540497114150821,1540497114151538,1540497114127346,-181.281,358.899,402.084
1540497119159695,1540497119146688,1540497119145198,-183.912,164.829,246.966
1540497124156015,1540497124155045,1540497124156756,-13.2101,15.7515,20.5577
1540497129149769,1540497129149195,1540497129150006,-6.29549,75.5352,75.7971
1540497134164617,1540497134171409,1540497134172014,-6.41948,110.148,110.335
1540497139189504,1540497139163843,1540497139179633,896.975,-nan,376.082
1540497144188445,1540497144177981,1540497144178740,91.3979,129.934,158.86
1540497149182023,1540497149182950,1540497149183549,127.396,280.279,307.873
1540497154182146,1540497154181721,1540497154181267,-931.188,3867.79,3978.3
1540497159208694,1540497159165036,1540497159207035,327.911,663.453,740.064
1540497164223230,1540497164194850,1540497164195390,167.247,447.724,477.941
1540497169217114,1540497169227658,1540497169217645,25.9722,170.094,172.066
1540497174202337,1540497174216833,1540497174216246,102.286,209.809,233.414
1540497179237577,1540497179226198,1540497179225664,-25.8132,194.118,195.827
1540497184231468,1540497184230381,1540497184232030,-10.069,17.2108,19.9398
1540497189235329,1540497189233954,1540497189234839,9.47793,32.1677,33.5349
1540497194273154,1540497194272256,1540497194249906,165.229,362.03,397.953
1540497199265837,1540497199266499,1540497199251845,-111.365,207.134,235.173
1540497204263405,1540497204262714,1540497204261304,-68.7308,86.4239,110.422
1540497209264865,1540497209264382,1540497209263966,411.236,1666.91,1716.89
1540497214255882,1540497214256861,1540497214257433,104.185,222.014,245.244
1540497219272341,1540497219257198,1540497219271116,83.2446,233.313,247.719
1540497224294412,1540497224291130,1540497224291520,34.8868,-nan,18.2423
1540497229286302,1540497229296625,1540497229297186,-23.2696,175.439,176.976
1540497234300759,1540497234284980,1540497234300058,50.549,258.296,263.195
1540497239290647,1540497239306989,1540497239305734,189.914,173.545,257.265
1540497244283869,1540497244321087,1540497244308984,2130.44,-nan,534.978
1540497249313203,1540497249306813,1540497249313732,-17.4871,104.727,106.177
1540497254326533,1540497254340655,1540497254326044,-32.9154,242.232,244.458
1540497259327800,1540497259329161,1540497259328739,19.9033,44.5041,48.752
1540497264329172,1540497264342808,1540497264324564,-336.085,-nan,277.8
1540497269327081,1540497269361622,1540497269354226,1544.95,-nan,512.022
1540497274345973,1540497274356605,1540497274354634,155.053,-nan,150.876
1540497279368627,1540497279338565,1540497279368043,80.4229,506.873,513.214
1540497284371162,1540497284358677,1540497284357553,-115.986,197.024,228.629
1540497289370118,1540497289369441,1540497289368274,-94.9056,158.593,184.821
1540497294369174,1540497294389012,1540497294372142,252.002,191.313,316.395
1540497299368886,1540497299383403,1540497299368462,-29.2387,249.107,250.817
1540497304378872,1540497304379324,1540497304406820,84.7785,471.875,479.43
1540497309380081,1540497309379673,1540497309392003,-73.8097,182.864,197.198
1540497314384911,1540497314414053,1540497314403008,1350.43,-nan,415.23
1540497319409110,1540497319393865,1540497319418299,-802.522,-nan,358.69
1540497324395010,1540497324402810,1540497324402401,55.7322,99.1593,113.748
1540497329409992,1540497329409268,1540497329421356,-100.366,159.629,188.56
1540497334414799,1540497329646356,1540497334434439,-432429,-nan,82695.3
1540497339410762,1540497339419526,1540497339420562,-64.8962,144.732,158.616
1540497344424873,1540497344427991,1540497344426160,22.1341,-nan,21.0567
1540497349431354,1540497349458990,1540497349432391,130.153,448.736,467.23
1540497354442081,1540497354441613,1540497354440819,-112.556,309.503,329.334
1540497359461586,1540497359472817,1540497359462903,65.936,165.241,177.91
1540497364480285,1540497364459270,1540497364479518,73.4963,346.516,354.224
1540497369461233,1540497369474038,1540497369460250,-61.3467,217.349,225.84
1540497374478802,1540497374497436,1540497374479855,88.7309,297.314,310.272
1540497379459390,1540497379484871,1540497379459927,62.7262,429.412,433.969
1540497384481227,1540497384482816,1540497384479673,-25.7881,-nan,19.5678
1540497389481278,1540497389482885,1540497389482254,18.2488,25.6662,31.4924
1540497394502678,1540497394501316,1540497394486971,178.518,199.052,267.377
1540497399489863,1540497399489312,1540497399504082,-99.7688,216.96,238.8
1540497404502258,1540497404501076,1540497404499577,-136.767,126.222,186.11
1540497409524963,1540497409513714,1540497409514340,87.1281,151.434,174.71
1540497414523380,1540497414524218,1540497414522085,-21.3463,-nan,10.4919
1540497419513326,1540497419526467,1540497419512656,-42.3868,224.878,228.838
1540497424533264,1540497424557543,1540497424519713,-1853.89,-nan,561.063
1540497429532165,1540497429529884,1540497429531023,18.8474,-nan,2.79732
1540497434546884,1540497434560478,1540497434560908,-22.7666,232.809,233.92
1540497439544006,1540497439564808,1540497439554151,669.324,-nan,296.652
1540497444572569,1540497444574323,1540497444558440,-231.712,75.3008,243.64
1540497449551211,1540497449574723,1540497449550601,-67.3508,404.12,409.694
1540497454569668,1540497454583072,1540497454568637,-67.2412,227.098,236.844
1540497459567290,1540497459566779,1540497459564539,-34.9264,-nan,17.7604
1540497464593330,1540497464573194,1540497464572324,-140.592,329.852,358.564
1540497469612119,1540497469575585,1540497469575045,-153.794,619.712,638.51
1540497474573076,1540497474582474,1540497474574120,44.4632,140.395,147.268
1540497479607415,1540497479617903,1540497479607993,28.0629,168.344,170.667
1540497484604170,1540497484624264,1540497484582645,-2699.52,-nan,597.007
1540497489591717,1540497489592293,1540497489604700,36.6088,212.209,215.344
1540497494617520,1540497494615973,1540497494614716,140.964,117.94,183.796
1540497499637775,1540497499617387,1540497499615820,-305.543,222.538,377.994
1540497504634341,1540497504633703,1540497504622473,37.5683,191.55,195.2
1540497509626154,1540497509626913,1540497509624908,-20.9731,-nan,15.384
1540497514644179,1540497514643201,1540497514645442,-20.6766,-nan,5.77693
1540497519626313,1540497519625620,1540497519654760,-208.449,442.107,488.784
1540497524653583,1540497524652921,1540497524654005,-9.45352,53.0843,53.9195
1540497529664741,1540497529635878,1540497529637151,339.761,332.37,475.297
1540497534654316,1540497534667783,1540497534625912,-2684,-nan,602.806
1540497539662721,1540497539653131,1540497539652692,-6.90314,160.809,160.957
1540497544678415,1540497544678970,1540497544660919,-117.38,272.61,296.807
1540497549670335,1540497549679132,1540497549655791,-871.064,-nan,331.255
1540497554667238,1540497554668644,1540497554697877,381.279,365.725,528.326
1540497559693746,1540497559680093,1540497559679003,-122.807,216.272,248.707
1540499276841293,1540499276845293,1540499276842302,20.6041,39.211,44.2949
1540499286871273,1540499286870657,1540499286871630,-8.54277,61.7863,62.374
1540499291884863,1540499291888922,1540499291885868,20.7332,40.6349,45.6186
1540499296901326,1540499296900608,1540499296877580,127.592,385.734,406.289
1540499301878393,1540499301887000,1540499301900419,4723.35,-nan,888.691
1540499306897783,1540499306880283,1540499306881147,155.674,235.942,282.671
1540499311901960,1540499311903019,1540499316902473,48780.7,71483.2,86541.4
1540499321902744,1540499316910182,1540499321904159,-32557.2,80048.5,86416
1540499326911171,1540499321904967,1540499326911607,-10058.2,86057.8,86643.6
1540499331925173,1540499331908423,1540499331923187,145.673,227.222,269.908
1540499381969212,1540499386996427,1540499386997424,-46176.9,73758.4,87020.7
1540499391982549,1540499391983341,1540499391987646,-1.5641,59.6247,59.6452
1540499396983445,1540499396976746,1540499396997546,-675.144,-nan,296.086
1540499401990877,1540499401991544,1540499401992135,477.827,1342.77,1425.26
1540499406993161,1540499406976169,1540499406991464,127.596,245.162,276.379
1540499412010949,1540499412010063,1540499412001171,48.982,149.553,157.37
1540499417015596,1540499417011363,1540499417012009,42.4212,-nan,40.0207
1540499422010026,1540499422009314,1540499422029425,-153.215,293.077,330.709
1540499427031974,1540499427016946,1540499427018362,189.239,134.856,232.374
1540499432029442,1540499432039429,1540499432039054,62.164,142.032,155.04
1540499437034384,1540499437034911,1540499437057212,79.4801,381.722,389.908
1540499467079003,1540499467054611,1540499472077248,-1.11817e+06,-nan,86506.2
1540499477080315,1540499477069888,1540499477102711,-1650.1,-nan,471.785
1540499482074129,1540499482074608,1540499482099127,78.7545,420.571,427.881
1540499487101181,1540499487102424,1540499487088368,-162.07,144.697,217.265
1540499492126242,1540499492124246,1540499492095849,563.927,-nan,526.596
1540499502118261,1540499502117849,1540499502128508,-67.5403,152.563,166.845
1540499507117239,1540499507112605,1540499507130565,-471.549,-nan,258.121
1540499512144090,1540499512131786,1540499512130486,-142.06,180.453,229.661
1540499517141982,1540499517141036,1540499517142361,-7.35163,32.7348,33.5501
1540499522144773,1540499522174699,1540499522146166,188.287,467.572,504.06
1540499532155546,1540499537160416,1540499537167712,-337471,-nan,86743.4
1540499542168550,1540499542170726,1540499542185636,357.58,-nan,298.984
1540499547165526,1540499547179645,1540499547178861,120.36,188.939,224.019
1540499552192535,1540499552191996,1540499557191422,-24861,82864.2,86513.2
1540499557200598,1540499562192824,1540499562194806,-91226.9,-nan,86432.3
1540499567212707,1540499567213071,1540499567213344,221.089,1283.08,1301.99
1540499572205453,1540499572219170,1540499572233276,125217,-nan,16909.8
1540499582235588,1540499582267564,1540499587225053,1.47984e+06,-nan,86357.3
1540499587253095,1540499587225578,1540499592240036,-1.25778e+06,-nan,86311.7
1540499597250882,1540499597237118,1540499597266788,-1390.15,-nan,423.44
1540499602241694,1540499602270369,1540499602256310,1281.83,-nan,410.189
1540499607286698,1540499607260187,1540499607250470,-5051.23,-nan,814.315
1540499612268528,1540499612281741,1540499612267764,-48.736,225.778,230.978
1540499617293476,1540499617277288,1540499617281261,378.802,-nan,232.444
1540499622283602,1540499622281495,1540499622282821,13.2513,-nan,4.31198
1540499627275811,1540499627274921,1540499627284838,-95.0898,112.715,147.468
1540499632312343,1540499632323499,1540499632307998,-265.063,-nan,232.219
1540499637302931,1540499637302580,1540499637289692,9.70417,219.51,219.725
1540499642316391,1540499642315293,1540499642317424,-17.2957,-nan,7.00142
1540499647313998,1540499647312879,1540499647314559,-9.98637,15.4738,18.4164
1540499652322774,1540499652323258,1540499652331702,5.79221,140.077,140.196
1540499657326367,1540499657341476,1540499657327306,64.3199,241.015,249.45
1540499662343990,1540499662332686,1540499662343638,18.559,186.228,187.15
1540499667336602,1540499667337297,1540499667337031,15.2689,116.044,117.045
1540499672363449,1540499672364126,1540499672362813,-13.0051,40.314,42.3598
1540499677358585,1540499677360810,1540499677357367,-22.1551,19.8935,29.7759
1540499682349605,1540499682360389,1540499682359716,87.7092,140.583,165.7
1540499692357799,1540499692372129,1540499692381721,-6231.68,-nan,1060.39
1540499697372360,1540499697374212,1540499697397469,427.509,77.0243,434.393
1540499702392079,1540499702401824,1540499702355239,-2757.42,-nan,693.758
1540499707390696,1540499707391364,1540499707391922,323.941,936.009,990.48
1540499712394672,1540499712395637,1540499712396763,-292.041,432.386,521.772
1540499717413763,1540499717391541,1540499717414744,-103.323,376.655,390.57
1540499722413093,1540499722404989,1540499722405685,71.1176,91.9471,116.241
1540499727405861,1540499727420886,1540499727404573,-94.1742,250.629,267.739
1540499732407543,1540499732434990,1540499732407072,-60.3523,473.083,476.917
1540499737412994,1540499737413357,1540499737413572,124.117,794.304,803.943
1540499742427731,1540499742429884,1540499742428898,19.356,-nan,7.9694
1540499747440595,1540499747427433,1540499747441190,-37.6024,225.401,228.516
1540499752444620,1540499752449360,1540499752453560,-2499.38,-nan,1059.37
1540499757442576,1540499757443577,1540499757457425,110.092,224.658,250.182
1540499762437161,1540499762436621,1540499762450596,-94.4545,203.992,224.799
1540499767472613,1540499767451959,1540499767450621,-252.961,280.2,377.493
1540499772464329,1540499772463339,1540499772462091,-183.149,241.251,302.895
1540499777464276,1540499777463355,1540499777474595,-108.53,132.097,170.963
1540499782460692,1540499782461433,1540499782462106,580.242,1426.55,1540.04
1540499787479695,1540499787464431,1540499787464067,-19.618,261.848,262.582
1540499792474506,1540499792474136,1540499792491528,-87.9796,274.218,287.986
1540499797482016,1540499797482800,1540499797497825,84.4334,252.793,266.521
1540499802505244,1540499802506052,1540499802484067,-182.298,312.905,362.136
1540499807488555,1540499807503842,1540499807504631,-87.2175,256.884,271.286
1540499812505657,1540499812504371,1540499812507596,-30.3987,-nan,19.1877
1540499817522325,1540499817503830,1540499817504368,117.179,281.468,304.886
1540499822516658,1540499822525948,1540499822525363,72.8001,118.988,139.492
1540499827539872,1540499827537774,1540499827523004,336.875,-nan,294.316
1540499832535892,1540499832535044,1540499832534178,-2450.28,4777.13,5368.87
1540499837550942,1540499837515563,1540499837525975,1868.7,-nan,511.372
1540499842551678,1540499842553509,1540499842541892,-166.298,29.612,168.914
1540499847556020,1540499847554737,1540499847539922,169.726,214.835,273.79
1540499852558437,1540499852559100,1540499852557027,-23.2765,-nan,14.6509
1540499857577911,1540499857563067,1540499857563725,112.114,210.622,238.603
1540499862553075,1540499862563362,1540499862584772,5691.5,-nan,866.892
1540499867577832,1540499867588185,1540499867567839,-642.485,-nan,289.818
1540499872578678,1540499872595678,1540499872596026,-22.9413,292.256,293.155
1540499877595502,1540499877597440,1540499877594409,-19.0565,7.59258,20.5133
1540499882611605,1540499882611153,1540499882612011,-11.1802,79.9763,80.754
1540499887603023,1540499887620198,1540499887603915,69.5782,277.488,286.078
1540499892622379,1540499892597521,1540499892597051,-78.0685,426.562,433.647
1540499897643152,1540499897599834,1540499897598891,-359.265,674.087,763.849
1540499902608014,1540499902606936,1540499902607441,13.5801,60.1013,61.6164
1540499907621341,1540499907647834,1540499907606577,-2202.2,-nan,612.297
1540499912646503,1540499912646884,1540499912647286,-1159.16,5437.58,5559.76
1540499917629884,1540499917629185,1540499917642432,-106.023,180.833,209.622
1540499922635176,1540499922649566,1540499922651042,-200.556,182.217,270.972
1540499927664236,1540499927663815,1540499927650750,19.4019,223.386,224.227
1540499932649588,1540499932674415,1540499932660187,892.289,-nan,359.718
1540499937656668,1540499937659972,1540499937660298,27.5158,-nan,23.0693
1540499942670201,1540499942659486,1540499942669797,20.1882,175.045,176.205
1540499947674453,1540499947695812,1540499947660564,-1710.33,-nan,517.167
1540499952691255,1540499952676609,1540499952664540,-16550.6,-nan,2371.42
1540499957710201,1540499957711091,1540499957707818,-33.9708,-nan,18.5061
1540499962678296,1540499962704438,1540499962690314,1025.31,-nan,376.439
1540499967679977,1540499967708995,1540499967669060,-1696,-nan,609.854
1540499972712989,1540499972696305,1540499972711528,108.665,250.281,272.853
1540499977690367,1540499977713360,1540499977725972,-9054.67,-nan,1134.8
1540499982709409,1540499982718024,1540499982718498,-5.73072,143.146,143.26
1540499987732647,1540499987730682,1540499987731801,14.4742,-nan,10.8849
1540499992709320,1540499992722566,1540499992723747,-133.53,203.7,243.565
1540499997732978,1540499997722616,1540499997732565,19.9795,168.64,169.819
1540500002727102,1540500002749565,1540500002735211,661.636,-nan,330.726
1540500007750017,1540500007748864,1540500007750713,-12.0901,5.51245,13.2875
1540500012754580,1540500012754210,1540500012744152,1.93361,168.351,168.362
1540500017759813,1540500017761505,1540500017763079,220.214,120.857,251.198
1540500022760464,1540500022760839,1540500022760131,-10.7454,101.887,102.452
1540500027778015,1540500027764360,1540500027777544,29.6861,225.825,227.768
1540500032786924,1540500032774113,1540500032787329,-24.7857,219.186,220.583
1540500037770779,1540500037785822,1540500037787085,-168.734,220.116,277.349
1540500042789210,1540500042789991,1540500042789755,18.3267,107.14,108.696
1540500047796449,1540500047797135,1540500047795777,-13.5075,37.7769,40.1192
1540500052801489,1540500052826606,1540500052827320,-140.542,419.868,442.765
1540500057817078,1540500062816005,1540500062817272,-58366.9,63888.6,86535.8
1540500067801187,1540500067814918,1540500067814604,69.0046,212.847,223.753
1540500072809006,1540500072822548,1540500072821697,122.303,174.262,212.898
1540500077860089,1540500077825596,1540500077843953,1791.56,-nan,497.646
1540500082844040,1540500082843424,1540500082842133,-71.1129,106.878,128.374
1540500087843201,1540500087869001,1540500087844243,121.994,417.817,435.263
1540500092853517,1540500092843506,1540500092842981,-17.7004,169.558,170.479
1540500097876807,1540500097865190,1540500097853667,-295689,-nan,47994.4
1540500102861048,1540500102851169,1540500102851621,67.2068,136.355,152.018
1540500107892345,1540500107893948,1540500107862287,-452.016,255.448,519.203
1540500112907783,1540500112898478,1540500112885149,6246.33,-nan,1106.14
1540500117883268,1540500117872832,1540500117882445,39.2862,163.026,167.693
1540500122889748,1540500122889047,1540500122889524,6.76593,92.8113,93.0576
1540500127903204,1540500127889598,1540500127888866,-66.0279,230.842,240.1
1540500137908086,1540500137907621,1540500137914193,-52.6462,72.2649,89.4083
1540500142925610,1540500142912594,1540500142911705,-85.0084,216.764,232.837
1540500147915281,1540500147925530,1540500147914664,-30.94,174.365,177.088
1540500152946676,1540500152946345,1540500152919952,49.2299,455.307,457.961
1540500157925086,1540500157921996,1540500157924285,14.5463,20.1911,24.8853
1540500162936818,1540500162947517,1540500162921525,-1081.74,-nan,369.327
1540500167947397,1540500167960806,1540500167961308,-31.8322,229.775,231.969
1540500172954614,1540500172955040,1540500172975333,49.1922,349.299,352.745
1540500177971794,1540500177971188,1540500177984536,-97.7483,188.889,212.683
1540500182984494,1540500182960597,1540500182971623,906.925,-nan,339.75
1540500187973986,1540500187982324,1540500187981968,54.9537,111.832,124.605
1540500192987492,1540500192968686,1540500192988332,-75.0917,321.054,329.719
1540500197988794,1540500198014122,1540500198000625,969.93,-nan,364.015
1540500202999237,1540500202984829,1540500203015107,-1439.36,-nan,432.719
1540500223023611,1540500218027685,1540500223030076,-148926,-nan,86518
1540500228018466,1540500228022743,1540500228017585,-22.0188,65.8333,69.4179
1540500243064944,1540500238037220,1540500243065575,-14619.5,85780.9,87017.8
1540500248052234,1540500243084672,1540500248051405,18974.3,83843.7,85963.9
1540500253063198,1540500253053938,1540500253053481,-7.17466,154.956,155.122
1540500258080397,1540500258079254,1540500258081230,-14.2389,-nan,10.221
1540500263088371,1540500263113263,1540500263073526,-2101.3,-nan,586.868
1540500268095761,1540500268086898,1540500268085817,-71.2974,145.03,161.608
1540500273087089,1540500273113054,1540500273097650,949.291,-nan,378.356
1540500278109251,1540500278093439,1540500283106980,-726016,-nan,86494.9
1540500298116152,1540500303138824,1540500303124288,668994,-nan,86674.7
1540500308144112,1540500308145373,1540500308143018,-18.1127,-nan,0.397607
1540500323151244,1540500318160588,1540500323150773,10830.9,85684.9,86366.7
1540500403254170,1540500398255708,1540500403258627,-102702,-nan,86544.5
1540500408271522,1540500408272259,1540500408272732,134.234,389.614,412.09
1540500418263633,1540500418253608,1540500418284828,-1498.93,-nan,448.192
1540500423288057,1540500423286766,1540500423287639,8.28402,36.0426,36.9823
1540500428288563,1540500428275187,1540500428289197,-40.734,229.054,232.648
1540500448309450,1540500448309770,1540500453310417,14716.6,85288.8,86549.2
1540500458309647,1540500453311995,1540500458323222,-313040,-nan,86609.5
1540500463309019,1540500458324033,1540500463309555,-12312.8,85394.2,86277.3
1540500468327522,1540500463337024,1540500468328237,-16443.2,84794.6,86374.2
1540500473333824,1540500473334253,1540500473340456,-9.16102,94.2957,94.7397
1540500478333637,1540500478333292,1540500478322865,0.696938,174.726,174.727
1540500483362366,1540500483348300,1540500483367213,-365.108,-nan,287.839
1540500488349903,1540500488349492,1540500493354278,-18986.1,84501.5,86608.2
1540500493368506,1540500493354761,1540500498382143,-633387,-nan,86769.8
1540500498382942,1540500498382605,1540500503359702,-15488,84726.3,86130.3
1540500508381973,1540500503370017,1540500508382810,-19331.9,84565.1,86746.6
1540500513401859,1540500508408321,1540500513390101,270231,-nan,86319
1540500518406624,1540500518380447,1540500518392235,1090.13,-nan,372.496
1540500523385199,1540500523399644,1540500523385720,34.6385,238.765,241.264
1540500528412212,1540500528428798,1540500528427960,145.144,224.022,266.932
1540500533433226,1540500533411445,1540500533409944,-308.585,255.696,400.756
1540500543430106,1540500548430367,1540500548430804,-20108.7,84176,86544.6
1540500548444551,1540500553425883,1540500553426861,-44882.3,73624.4,86226.3
1540500553440312,1540500558453395,1540500558453805,-18912.5,84679.7,86766
1540500563451944,1540500563451194,1540500563468795,-141.555,248.559,286.041
1540500568462192,1540500568451613,1540500568461795,19.6041,172.727,173.836
1540500573470888,1540500573470283,1540500573469147,-85.7914,153.544,175.886
1540500578467580,1540500578451555,1540500578465538,142.736,213.479,256.801
1540500583485931,1540500583486910,1540500583483718,-32.5234,-nan,16.988
1540500588481485,1540500588464039,1540500588495046,-1404.38,-nan,449.6
1540500593481147,1540500593480402,1540500593480903,7.03796,86.4833,86.7692
1540500603496072,1540500598483423,1540500603508499,-287393,-nan,86859.1
1540500608497038,1540500603508915,1540500608495822,27946.2,81667.2,86316.4
1540500613507901,1540500608523614,1540500613508954,-24187,82809.7,86269.7
1540500618522321,1540500613521982,1540500618520886,33059.3,79961.4,86525.9
1540500623544201,1540500623543140,1540500623518858,223.657,373.122,435.02
1540500628523124,1540500628530501,1540500628537230,-9251.03,-nan,2474.36
1540500633542333,1540500633548905,1540500633548539,48.8996,76.1266,90.4789
1540500638538912,1540500638538395,1540500638563531,-146.125,395.542,421.671
1540500643572594,1540500643572966,1540500643543876,-128.89,475.882,493.028
1540500648568653,1540500648535968,1540500648574828,-1013.09,-nan,622.002
1540500653542815,1540500653556191,1540500653571828,24317.7,-nan,3187.12
1540500663572530,1540500663573542,1540500663574447,431.049,724.073,842.665
1540500668592717,1540500668599260,1540500668596741,81.8805,-nan,80.4081
1540500673604070,1540500673593992,1540500673597632,173.914,-nan,135.952
1540500678590761,1540500678620622,1540500678606393,1399.84,-nan,426.712
1540500683601227,1540500683617950,1540500683616801,182.632,192.374,265.258
1540500688634489,1540500688610480,1540500688612169,352.817,155.026,385.374
1540500693609182,1540500693615432,1540500693623227,3786.1,-nan,1039.19
1540500698620827,1540500698621427,1540500698621799,129.783,480.313,497.538
1540500703616074,1540500703633938,1540500703633315,125.962,263.994,292.505
1540500708634751,1540500708620045,1540500708634275,32.2597,244.117,246.24
1540500713651999,1540500713613330,1540500713628331,2371.81,-nan,552.463
1540500718653417,1540500718629240,1540500718630301,246.294,311.065,396.764
1540500723665934,1540500723640662,1540500723653608,982.926,-nan,361.916
1540500728667786,1540500728653649,1540500728658820,327.936,-nan,196.783
1540500733645371,1540500733659934,1540500733644997,-25.8276,249.843,251.174
1540500738669780,1540500738669434,1540500738654635,15.3926,253.481,253.948
1540500743671215,1540500743671887,1540500743671621,14.7802,119.585,120.495
1540500748685480,1540500748679286,1540500748674339,-2232.57,-nan,774.218
1540500753701206,1540500753686425,1540500753672756,-46806.5,-nan,6198.38
1540500788740953,1540500788738145,1540500788741305,-6.74007,30.6365,31.3692
1540500793737015,1540500793751990,1540500793753492,-213.758,183.772,281.895
1540500803762593,1540500798747234,1540500803763473,-20338.9,84389.5,86805.9
1540500808751971,1540500813759022,1540500813759463,-20320.7,84246,86662.1
1540500813768781,1540500818773477,1540500818772502,44984.4,73996.1,86596.9
1540500818805255,1540500823774187,1540500823792459,-842872,-nan,86313.4
1540500828798971,1540500828772286,1540500828799744,-96.871,456.182,466.354
1540500833807354,1540500833797272,1540500833795475,-192.798,67.7092,204.342
1540500838794011,1540500838793530,1540500838794450,-11.4617,72.9175,73.8128
1540500848814737,1540500848815526,1540500848816090,170.773,438.045,470.156
1540500853806772,1540500853811574,1540500853807188,10.2597,65.5863,66.3839
1540500858832588,1540500858832131,1540500858832845,-7.79276,93.2931,93.618
1540500863835294,1540500863837195,1540500868819698,87324.2,-nan,86262.6
1540500868833302,1540500868833626,1540500873823529,14868.9,85073.7,86363.3
1540500878835289,1540500873844340,1540500878845130,-226545,-nan,86461.1
1540500883848890,1540500883813970,1540500883846348,394.807,426.744,581.363
1540500888875416,1540500888876621,1540500888878049,-196.494,194.428,276.428
1540500893876628,1540500893874681,1540500893873350,45.8576,-nan,41.8812
1540500898873900,1540500898891591,1540500898890950,127.426,259.606,289.193
1540500903875104,1540500903897703,1540500903896776,207.789,307.523,371.142
1540500908868314,1540500908895262,1540500908896778,-385.008,304.617,490.941
1540500913894887,1540500913895814,1540500913879645,-152.129,208.854,258.386
1540500918919045,1540500918918134,1540500918920085,-17.7621,-nan,14.6141
1540500923899251,1540500923913270,1540500923915528,-358.765,-nan,286.324
1540500928912627,1540500928911981,1540500928901260,35.3441,182.653,186.041
1540500933904514,1540500933906481,1540500933905761,21.14,-nan,17.1685
1540500938920295,1540500938919043,1540500938908666,111.17,158.776,193.826
1540500943930098,1540500943928768,1540500943934463,-63.5668,20.7982,66.8828
1540500953937684,1540500953923109,1540500958921169,-667472,-nan,86248.1
1540500958941076,1540500963624257,1540500963943231,-1.57791e+07,-nan,87376.7
1540500963964790,1540500963989400,1540500968959189,1.13834e+06,-nan,86439.8
1540500968973864,1540500973956200,1540500973956733,-24446.2,82698.4,86236
1540500978984554,1540500978982544,1540500978985538,-17.2968,11.1552,20.582
1540500983982402,1540500983981284,1540500984003079,-231.975,267.941,354.407
1540500989007866,1540500988967332,1540500988993790,2083.5,-nan,603.469
1540500993989464,1540500994010182,1540500994020153,-5343.67,-nan,839.967
1540500999007783,1540500999007142,1540500998996160,36.3881,187.221,190.725
1540501003993753,1540501003993215,1540501004014146,-129.448,322.718,347.713
1540501009038835,1540501009029945,1540501009029511,-3.37093,147.663,147.702
1540501014052083,1540501014026116,1540501014009573,-17711.2,-nan,1727.9
1540501019029720,1540501019029352,1540501019019067,2.55756,172.511,172.53
1540501024067782,1540501024045980,1540501024054477,763.965,-nan,308.713
1540501029046638,1540501029032857,1540501029047121,-31.7593,236.275,238.4
1540501034053398,1540501034052081,1540501034054260,-14.5344,-nan,2.82439
1540501039050402,1540501039049510,1540501039049065,86.2675,218.164,234.601
1540501044065435,1540501044067114,1540501044068309,83.1874,56.0978,100.335
1540501049073029,1540501049044037,1540501049057835,1320.6,-nan,414.105
1540501054075285,1540501054056688,1540501059062746,-851655,-nan,86317.9
1540501059079893,1540501064086977,1540501064101666,-681773,-nan,86910.8
1540501064103056,1540501069090594,1540501069106688,-744507,-nan,86597.1
1540501069111539,1540501074106714,1540501074107731,-46803.9,72703.9,86466.6
1540501079102691,1540501079117098,1540501079087451,-1372.97,-nan,424.06
1540501084116531,1540501084112365,1540501084113045,42.1596,-nan,38.4446
1540501089113501,1540501089112829,1540501089126763,-107.863,194.3,222.232
1540501094125152,1540501094124841,1540501094124185,-85.8242,315.919,327.369
1540501099148974,1540501099147870,1540501099148523,10.0477,52.3112,53.2674
1540501104140998,1540501104142131,1540501104125765,-177.049,189.301,259.194
1540501109126991,1540501109154836,1540501109156948,-593.1,-nan,519.707
1540501114132399,1540501114147520,1540501114132760,25.2419,253.266,254.521
1540501129174802,1540501129161537,1540501129175158,-22.4786,227.042,228.152
1540501134164691,1540501134180144,1540501134203424,16245.7,-nan,1710.75
1540501139197988,1540501139189782,1540501139160901,3859.62,-nan,748.677
1540501144192328,1540501144176732,1540501144207076,-1410.55,-nan,435.842
1540501149201533,1540501149176558,1540501149187270,998.388,-nan,354.716
1540501154190781,1540501154190184,1540501154185774,-10.8161,56.8568,57.8764
1540501159205272,1540501159208198,1540501159206973,26.8541,-nan,12.5454
1540501164215814,1540501164223490,1540501164216269,16.5946,119.689,120.834
1540501169223782,1540501169232180,1540501169208981,-856.281,-nan,329.549
1540501174229080,1540501174239015,1540501174228614,-22.5669,168.559,170.063
1540501179214597,1540501179229200,1540501179229825,-56.2273,249.521,255.778
1540501184224801,1540501184240205,1540501184225592,55.5224,249.762,255.858
1540501194250958,1540501194245122,1540501199240920,-268098,-nan,86359
1540501204267659,1540501209286842,1540501209287788,-43742.2,75066,86880.8
1540501219284681,1540501219298686,1540501219299295,-50.2941,239.541,244.764
1540501224296352,1540501224327214,1540501224297831,205.963,477.04,519.603
1540501229323505,1540501229322129,1540501229322914,11.6107,34.4845,36.3867
1540501234322098,1540501234307380,1540501234321781,21.6185,246.867,247.812
1540501239311430,1540501239128026,1540501239326353,-13105.9,-nan,3307.94
1540501239311430,1540501239328220,1540501239326353,257.066,24.0565,258.189
1540501244314843,1540501244314435,1540501244315305,-12.9314,81.9942,83.0076
1540501249348501,1540501249325333,1540501249333859,856.007,-nan,328.938
1540501254362863,1540501254350459,1540501254342138,-4663.26,-nan,915.745
1540501259349371,1540501259348979,1540501259330876,34.3554,311.604,313.492
1540501264356782,1540501264354937,1540501264358406,-27.9583,-nan,27.3078
1540501269376389,1540501269353020,1540501269338214,-14070.7,-nan,1532.53
1540501274372455,1540501274358175,1540501274359150,140.256,175.191,224.418
1540501279366370,1540501279367428,1540501279367051,17.1678,67.7054,69.848
1540501284379133,1540501284367799,1540501284367372,-13.0487,192.487,192.929
1540501289375673,1540501289397900,1540501289374590,-114.332,374.523,391.585
1540501294398388,1540501294396788,1540501294397312,20.3784,27.6802,34.3726
1540501299387011,1540501299375651,1540501299386308,36.662,181.503,185.169
1540501304380940,1540501304396537,1540501304395627,145.298,201.623,248.522
1540501309409602,1540501309394629,1540501309408430,78.8916,232.119,245.16
1540501314396357,1540501314408535,1540501314386076,-757.81,-nan,322.605
1540501319428814,1540501319427683,1540501319413382,136.581,222.607,261.167
1540501324418312,1540501324440337,1540501324441601,-251.349,310.953,399.835
