{
  "stations": [
      { "id": "1", "position_X": -0.65, "position_Y": 0 },
      { "id": "2", "position_X": 0,     "position_Y": 0 },
      { "id": "3", "position_X": 0.65,  "position_Y": 0 }
  ],

  "host": { "ip": "127.0.0.1",  "port": 10001 },

  "gnuradio_source_dir": "../../src/gnuradio",

  "database_file": "../../database/indoor_location.db",

  "exponentialMovingAverage": false,

  "shouldStartGNURadioServices": false
}
